graph LR
A[fichier.c]
subgraph gcc
B[Préprocesseur] --> C[Code C]
C --> D[Compilation]
D --> E[Édition des liens]
end
E --> F[Exécutable]
A --> B

D --> X[erreur]
E --> X

style X fill:#f9f,stroke:#333,stroke-width:4px
